{
  "title": "Capslock fine tunning",
  "rules": [
    {
      "description": "Capslock: Maps capslock to ctrl_r except on Maltron/Ergotron",
      "manipulators": [
        {
          "conditions": [
            {
              "type": "device_unless",
              "identifiers": [
                {
                  "vendor_id": 1240
                },
                {
                  "vendor_id": 7504
                }
              ]
            }
          ],
          "type": "basic",
          "from": {
            "key_code": "caps_lock",
            "modifiers": {
              "optional": [
                "any"
              ]
            }
          },
          "to": [
            {
              "key_code": "right_control",
              "modifiers": [
              ]
            }
          ]
        }
      ]
    }
  ]
}